\relax 
\@writefile{toc}{\contentsline {section}{\numberline {1}Original size}{1}{}\protected@file@percent }
\@writefile{toc}{\contentsline {section}{\numberline {2}Example of use}{2}{}\protected@file@percent }
\gdef \@abspage@last{8}
